{
    "name": "InputMap",
    "maps": [
        {
            "name": "Touches",
            "id": "d754672b-8198-4a15-a739-1c08e912d881",
            "actions": [
                {
                    "name": "ScreenPosition",
                    "type": "PassThrough",
                    "id": "17250b32-1716-43fd-b524-679677223206",
                    "expectedControlType": "Vector2",
                    "processors": "",
                    "interactions": "",
                    "initialStateCheck": false
                },
                {
                    "name": "OnTouch",
                    "type": "Button",
                    "id": "1f3aadc2-6146-4484-bf58-62ab16ff1469",
                    "expectedControlType": "Button",
                    "processors": "",
                    "interactions": "",
                    "initialStateCheck": false
                }
            ],
            "bindings": [
                {
                    "name": "",
                    "id": "fed8a979-3677-4c67-80bc-9c6102cebd82",
                    "path": "<Mouse>/position",
                    "interactions": "",
                    "processors": "",
                    "groups": "",
                    "action": "ScreenPosition",
                    "isComposite": false,
                    "isPartOfComposite": false
                },
                {
                    "name": "",
                    "id": "a60ff484-c7b9-40bb-91ac-c1a43c506816",
                    "path": "<Touchscreen>/position",
                    "interactions": "",
                    "processors": "",
                    "groups": "",
                    "action": "ScreenPosition",
                    "isComposite": false,
                    "isPartOfComposite": false
                },
                {
                    "name": "",
                    "id": "6fafa8b0-e2cf-4d5c-a8d1-bd028ae73916",
                    "path": "<Touchscreen>/Press",
                    "interactions": "",
                    "processors": "",
                    "groups": "",
                    "action": "OnTouch",
                    "isComposite": false,
                    "isPartOfComposite": false
                },
                {
                    "name": "",
                    "id": "a361ab0a-2d3c-4878-90e3-5f3d52eb3f0a",
                    "path": "<Mouse>/press",
                    "interactions": "",
                    "processors": "",
                    "groups": "",
                    "action": "OnTouch",
                    "isComposite": false,
                    "isPartOfComposite": false
                }
            ]
        }
    ],
    "controlSchemes": []
}